0	b'\xed\xba\n\x82\xd2\x0eOL\xde\xd1\x0e\xe4|\x08\xbfvkR\xb6m\x98\x19\x11\x1b\xdb\x86;`\x9b\xae\xe4\xee\xca>\x93\xeaMm\x98\x9d\xeeM\x91r!\x8e\xe5Y'	b'\xed\xba\n\x82\xd2\x0eOL\xde\xd1\x0e\xe4|\x08\xbfvkR\xb6m\x98\x19\x11\x1b\xdb\x86;`\x9b\xae\xe4\xee\xca>\x93\xeaMm\x98\x9d\xeeM\x91r!\x8e\xe5Y'	1	2017-03-09 19:16:15.294415	39e5b4830d4d9c14db7368a95b65d5463ea3d09520373723430c03a5a453b5df
0	b'\xed\xba\n\x82\xd2\x0eOL\xde\xd1\x0e\xe4|\x08\xbfvkR\xb6m\x98\x19\x11\x1b\xdb\x86;`\x9b\xae\xe4\xee\xca>\x93\xeaMm\x98\x9d\xeeM\x91r!\x8e\xe5Y'	b'\xed\xba\n\x82\xd2\x0eOL\xde\xd1\x0e\xe4|\x08\xbfvkR\xb6m\x98\x19\x11\x1b\xdb\x86;`\x9b\xae\xe4\xee\xca>\x93\xeaMm\x98\x9d\xeeM\x91r!\x8e\xe5Y'	1	2017-03-09 19:16:15.484693	e443169117a184f91186b401133b20be670c7c0896f9886075e5d9b81e9d076b
0	b'\xed\xba\n\x82\xd2\x0eOL\xde\xd1\x0e\xe4|\x08\xbfvkR\xb6m\x98\x19\x11\x1b\xdb\x86;`\x9b\xae\xe4\xee\xca>\x93\xeaMm\x98\x9d\xeeM\x91r!\x8e\xe5Y'	b'\xed\xba\n\x82\xd2\x0eOL\xde\xd1\x0e\xe4|\x08\xbfvkR\xb6m\x98\x19\x11\x1b\xdb\x86;`\x9b\xae\xe4\xee\xca>\x93\xeaMm\x98\x9d\xeeM\x91r!\x8e\xe5Y'	1	2017-03-09 19:16:15.674577	56acd2f85500d246e0851f77035f8b4414a57c4f31735c8f37c9cec0f3739d47
0	b'\xed\xba\n\x82\xd2\x0eOL\xde\xd1\x0e\xe4|\x08\xbfvkR\xb6m\x98\x19\x11\x1b\xdb\x86;`\x9b\xae\xe4\xee\xca>\x93\xeaMm\x98\x9d\xeeM\x91r!\x8e\xe5Y'	b'\xed\xba\n\x82\xd2\x0eOL\xde\xd1\x0e\xe4|\x08\xbfvkR\xb6m\x98\x19\x11\x1b\xdb\x86;`\x9b\xae\xe4\xee\xca>\x93\xeaMm\x98\x9d\xeeM\x91r!\x8e\xe5Y'	1	2017-03-09 19:16:15.864668	e162e30a5a4c1e44a7e04fca063c296001f26636ecf384701ae17849a4f83b11
0	b'\xed\xba\n\x82\xd2\x0eOL\xde\xd1\x0e\xe4|\x08\xbfvkR\xb6m\x98\x19\x11\x1b\xdb\x86;`\x9b\xae\xe4\xee\xca>\x93\xeaMm\x98\x9d\xeeM\x91r!\x8e\xe5Y'	b'\xed\xba\n\x82\xd2\x0eOL\xde\xd1\x0e\xe4|\x08\xbfvkR\xb6m\x98\x19\x11\x1b\xdb\x86;`\x9b\xae\xe4\xee\xca>\x93\xeaMm\x98\x9d\xeeM\x91r!\x8e\xe5Y'	1	2017-03-09 19:16:16.055257	0d9a5484f79ebe89bed064cf5f71ba2575c3e16cb3f135d8c1fd76e1965e5ec7
0	b'\xed\xba\n\x82\xd2\x0eOL\xde\xd1\x0e\xe4|\x08\xbfvkR\xb6m\x98\x19\x11\x1b\xdb\x86;`\x9b\xae\xe4\xee\xca>\x93\xeaMm\x98\x9d\xeeM\x91r!\x8e\xe5Y'	b'\xed\xba\n\x82\xd2\x0eOL\xde\xd1\x0e\xe4|\x08\xbfvkR\xb6m\x98\x19\x11\x1b\xdb\x86;`\x9b\xae\xe4\xee\xca>\x93\xeaMm\x98\x9d\xeeM\x91r!\x8e\xe5Y'	1	2017-03-09 19:16:16.244321	a1c5f5584e304e6cf402ea7924ee66c0469679d1dc90486d6524a1aa8ec27b29
0	b'\xed\xba\n\x82\xd2\x0eOL\xde\xd1\x0e\xe4|\x08\xbfvkR\xb6m\x98\x19\x11\x1b\xdb\x86;`\x9b\xae\xe4\xee\xca>\x93\xeaMm\x98\x9d\xeeM\x91r!\x8e\xe5Y'	b'\xed\xba\n\x82\xd2\x0eOL\xde\xd1\x0e\xe4|\x08\xbfvkR\xb6m\x98\x19\x11\x1b\xdb\x86;`\x9b\xae\xe4\xee\xca>\x93\xeaMm\x98\x9d\xeeM\x91r!\x8e\xe5Y'	1	2017-03-09 19:16:16.434093	a6c9b0f863d3c2056830114bb5edc235eb5257268e8c3e2a0aaf4a61c20730e2
0	b'\xed\xba\n\x82\xd2\x0eOL\xde\xd1\x0e\xe4|\x08\xbfvkR\xb6m\x98\x19\x11\x1b\xdb\x86;`\x9b\xae\xe4\xee\xca>\x93\xeaMm\x98\x9d\xeeM\x91r!\x8e\xe5Y'	b'\xed\xba\n\x82\xd2\x0eOL\xde\xd1\x0e\xe4|\x08\xbfvkR\xb6m\x98\x19\x11\x1b\xdb\x86;`\x9b\xae\xe4\xee\xca>\x93\xeaMm\x98\x9d\xeeM\x91r!\x8e\xe5Y'	1	2017-03-09 19:16:16.633843	9dddde7e9531b9f9375090d34d68df60e318871bea5f3129962ab4fee8d33033
0	b'\xed\xba\n\x82\xd2\x0eOL\xde\xd1\x0e\xe4|\x08\xbfvkR\xb6m\x98\x19\x11\x1b\xdb\x86;`\x9b\xae\xe4\xee\xca>\x93\xeaMm\x98\x9d\xeeM\x91r!\x8e\xe5Y'	b'\xed\xba\n\x82\xd2\x0eOL\xde\xd1\x0e\xe4|\x08\xbfvkR\xb6m\x98\x19\x11\x1b\xdb\x86;`\x9b\xae\xe4\xee\xca>\x93\xeaMm\x98\x9d\xeeM\x91r!\x8e\xe5Y'	1	2017-03-09 19:16:16.824499	39346d4953adbb253889a404644dbec64d75777ce1893192f112f6ce0048d925
0	b'\xed\xba\n\x82\xd2\x0eOL\xde\xd1\x0e\xe4|\x08\xbfvkR\xb6m\x98\x19\x11\x1b\xdb\x86;`\x9b\xae\xe4\xee\xca>\x93\xeaMm\x98\x9d\xeeM\x91r!\x8e\xe5Y'	b'\xed\xba\n\x82\xd2\x0eOL\xde\xd1\x0e\xe4|\x08\xbfvkR\xb6m\x98\x19\x11\x1b\xdb\x86;`\x9b\xae\xe4\xee\xca>\x93\xeaMm\x98\x9d\xeeM\x91r!\x8e\xe5Y'	1	2017-03-09 19:16:17.012870	53a84293ab3ff273bdda0995aa97b22da014323a3fb42a7290d3eb78f4385314
0	b'\xed\xba\n\x82\xd2\x0eOL\xde\xd1\x0e\xe4|\x08\xbfvkR\xb6m\x98\x19\x11\x1b\xdb\x86;`\x9b\xae\xe4\xee\xca>\x93\xeaMm\x98\x9d\xeeM\x91r!\x8e\xe5Y'	b'\xed\xba\n\x82\xd2\x0eOL\xde\xd1\x0e\xe4|\x08\xbfvkR\xb6m\x98\x19\x11\x1b\xdb\x86;`\x9b\xae\xe4\xee\xca>\x93\xeaMm\x98\x9d\xeeM\x91r!\x8e\xe5Y'	1	2017-03-09 19:16:17.203147	24dc9bebea86dd4149d86b7ab672714b2c60b6e76e3f8809133c7f29b5c2d180
0	b'\xed\xba\n\x82\xd2\x0eOL\xde\xd1\x0e\xe4|\x08\xbfvkR\xb6m\x98\x19\x11\x1b\xdb\x86;`\x9b\xae\xe4\xee\xca>\x93\xeaMm\x98\x9d\xeeM\x91r!\x8e\xe5Y'	b'\xed\xba\n\x82\xd2\x0eOL\xde\xd1\x0e\xe4|\x08\xbfvkR\xb6m\x98\x19\x11\x1b\xdb\x86;`\x9b\xae\xe4\xee\xca>\x93\xeaMm\x98\x9d\xeeM\x91r!\x8e\xe5Y'	1	2017-03-09 19:16:17.390487	ddf3ff7c110ced585a4061e3a3c66f7051fe6847fd4b561f03bbad2b072a9cf0
1	b'sK\x16\x1e\x9dy3\xba\x10\xab\xe1\xd3\x80-\xf4P\xe99\xbf\xd4\xad\x8c\xa1\xa9>\xc9\xd0uR\xb1\x07\x10E\x1aZ+8H\xef\xa4\x89\xfc\xaeVl\x8d\xeb\xea'	b'sK\x16\x1e\x9dy3\xba\x10\xab\xe1\xd3\x80-\xf4P\xe99\xbf\xd4\xad\x8c\xa1\xa9>\xc9\xd0uR\xb1\x07\x10E\x1aZ+8H\xef\xa4\x89\xfc\xaeVl\x8d\xeb\xea'	1	2017-03-09 19:16:18.515259	3b5d379e599883e88a7b50dcea6090f3b33c8b55df5a34d531468f6acb3b440a
1	b'sK\x16\x1e\x9dy3\xba\x10\xab\xe1\xd3\x80-\xf4P\xe99\xbf\xd4\xad\x8c\xa1\xa9>\xc9\xd0uR\xb1\x07\x10E\x1aZ+8H\xef\xa4\x89\xfc\xaeVl\x8d\xeb\xea'	b'sK\x16\x1e\x9dy3\xba\x10\xab\xe1\xd3\x80-\xf4P\xe99\xbf\xd4\xad\x8c\xa1\xa9>\xc9\xd0uR\xb1\x07\x10E\x1aZ+8H\xef\xa4\x89\xfc\xaeVl\x8d\xeb\xea'	1	2017-03-09 19:16:18.702501	5264efea3b4678d5937a9efb8fd5ec64e5761aec6efc642361c8836bb5da12d1
1	b'sK\x16\x1e\x9dy3\xba\x10\xab\xe1\xd3\x80-\xf4P\xe99\xbf\xd4\xad\x8c\xa1\xa9>\xc9\xd0uR\xb1\x07\x10E\x1aZ+8H\xef\xa4\x89\xfc\xaeVl\x8d\xeb\xea'	b'sK\x16\x1e\x9dy3\xba\x10\xab\xe1\xd3\x80-\xf4P\xe99\xbf\xd4\xad\x8c\xa1\xa9>\xc9\xd0uR\xb1\x07\x10E\x1aZ+8H\xef\xa4\x89\xfc\xaeVl\x8d\xeb\xea'	1	2017-03-09 19:16:18.891391	21049fe0067fdec00a7d0cad94e696f579867d832045c87410c2c943d1774eb6
1	b'sK\x16\x1e\x9dy3\xba\x10\xab\xe1\xd3\x80-\xf4P\xe99\xbf\xd4\xad\x8c\xa1\xa9>\xc9\xd0uR\xb1\x07\x10E\x1aZ+8H\xef\xa4\x89\xfc\xaeVl\x8d\xeb\xea'	b'sK\x16\x1e\x9dy3\xba\x10\xab\xe1\xd3\x80-\xf4P\xe99\xbf\xd4\xad\x8c\xa1\xa9>\xc9\xd0uR\xb1\x07\x10E\x1aZ+8H\xef\xa4\x89\xfc\xaeVl\x8d\xeb\xea'	1	2017-03-09 19:16:19.080892	b85dfd48cccefa7b666850ac44060e3dd33809d35c255d62a2a8588787df5c20
1	b'sK\x16\x1e\x9dy3\xba\x10\xab\xe1\xd3\x80-\xf4P\xe99\xbf\xd4\xad\x8c\xa1\xa9>\xc9\xd0uR\xb1\x07\x10E\x1aZ+8H\xef\xa4\x89\xfc\xaeVl\x8d\xeb\xea'	b'sK\x16\x1e\x9dy3\xba\x10\xab\xe1\xd3\x80-\xf4P\xe99\xbf\xd4\xad\x8c\xa1\xa9>\xc9\xd0uR\xb1\x07\x10E\x1aZ+8H\xef\xa4\x89\xfc\xaeVl\x8d\xeb\xea'	1	2017-03-09 19:16:19.266923	078208096eee07cc032151a47736f76ef0cb6c6f3a39855321f90bbda2187a44
1	b'sK\x16\x1e\x9dy3\xba\x10\xab\xe1\xd3\x80-\xf4P\xe99\xbf\xd4\xad\x8c\xa1\xa9>\xc9\xd0uR\xb1\x07\x10E\x1aZ+8H\xef\xa4\x89\xfc\xaeVl\x8d\xeb\xea'	b'sK\x16\x1e\x9dy3\xba\x10\xab\xe1\xd3\x80-\xf4P\xe99\xbf\xd4\xad\x8c\xa1\xa9>\xc9\xd0uR\xb1\x07\x10E\x1aZ+8H\xef\xa4\x89\xfc\xaeVl\x8d\xeb\xea'	1	2017-03-09 19:16:19.454727	7249e959389029a84a292d85358c7a030612196b5614a421eef7227dffe7b37e
1	b'sK\x16\x1e\x9dy3\xba\x10\xab\xe1\xd3\x80-\xf4P\xe99\xbf\xd4\xad\x8c\xa1\xa9>\xc9\xd0uR\xb1\x07\x10E\x1aZ+8H\xef\xa4\x89\xfc\xaeVl\x8d\xeb\xea'	b'sK\x16\x1e\x9dy3\xba\x10\xab\xe1\xd3\x80-\xf4P\xe99\xbf\xd4\xad\x8c\xa1\xa9>\xc9\xd0uR\xb1\x07\x10E\x1aZ+8H\xef\xa4\x89\xfc\xaeVl\x8d\xeb\xea'	1	2017-03-09 19:16:19.646268	cae0b8d2088e7df75a0a7db6817a4f34d4ba22499c626a5ab7b678e75b51d5fd
1	b'sK\x16\x1e\x9dy3\xba\x10\xab\xe1\xd3\x80-\xf4P\xe99\xbf\xd4\xad\x8c\xa1\xa9>\xc9\xd0uR\xb1\x07\x10E\x1aZ+8H\xef\xa4\x89\xfc\xaeVl\x8d\xeb\xea'	b'sK\x16\x1e\x9dy3\xba\x10\xab\xe1\xd3\x80-\xf4P\xe99\xbf\xd4\xad\x8c\xa1\xa9>\xc9\xd0uR\xb1\x07\x10E\x1aZ+8H\xef\xa4\x89\xfc\xaeVl\x8d\xeb\xea'	1	2017-03-09 19:16:19.832840	4ff717d584ed7ba18561048f91e809f437b03a42e6e253b7d85ea405c3f31870
1	b'sK\x16\x1e\x9dy3\xba\x10\xab\xe1\xd3\x80-\xf4P\xe99\xbf\xd4\xad\x8c\xa1\xa9>\xc9\xd0uR\xb1\x07\x10E\x1aZ+8H\xef\xa4\x89\xfc\xaeVl\x8d\xeb\xea'	b'sK\x16\x1e\x9dy3\xba\x10\xab\xe1\xd3\x80-\xf4P\xe99\xbf\xd4\xad\x8c\xa1\xa9>\xc9\xd0uR\xb1\x07\x10E\x1aZ+8H\xef\xa4\x89\xfc\xaeVl\x8d\xeb\xea'	1	2017-03-09 19:16:20.023401	7741d341a4ef641228842487631d540871b630611a5371f3db5d143e8f7fc931
1	b'sK\x16\x1e\x9dy3\xba\x10\xab\xe1\xd3\x80-\xf4P\xe99\xbf\xd4\xad\x8c\xa1\xa9>\xc9\xd0uR\xb1\x07\x10E\x1aZ+8H\xef\xa4\x89\xfc\xaeVl\x8d\xeb\xea'	b'sK\x16\x1e\x9dy3\xba\x10\xab\xe1\xd3\x80-\xf4P\xe99\xbf\xd4\xad\x8c\xa1\xa9>\xc9\xd0uR\xb1\x07\x10E\x1aZ+8H\xef\xa4\x89\xfc\xaeVl\x8d\xeb\xea'	1	2017-03-09 19:16:20.215665	17eb8859aab835857555cd9450004f4896a6958ced1d34615bbb295a75e22ed8
1	b'sK\x16\x1e\x9dy3\xba\x10\xab\xe1\xd3\x80-\xf4P\xe99\xbf\xd4\xad\x8c\xa1\xa9>\xc9\xd0uR\xb1\x07\x10E\x1aZ+8H\xef\xa4\x89\xfc\xaeVl\x8d\xeb\xea'	b'sK\x16\x1e\x9dy3\xba\x10\xab\xe1\xd3\x80-\xf4P\xe99\xbf\xd4\xad\x8c\xa1\xa9>\xc9\xd0uR\xb1\x07\x10E\x1aZ+8H\xef\xa4\x89\xfc\xaeVl\x8d\xeb\xea'	1	2017-03-09 19:16:20.404110	22167355cff64913077bb69aa8a1ca4d7f80442050d5c18a08598b2f0fa17d93
1	b'sK\x16\x1e\x9dy3\xba\x10\xab\xe1\xd3\x80-\xf4P\xe99\xbf\xd4\xad\x8c\xa1\xa9>\xc9\xd0uR\xb1\x07\x10E\x1aZ+8H\xef\xa4\x89\xfc\xaeVl\x8d\xeb\xea'	b'sK\x16\x1e\x9dy3\xba\x10\xab\xe1\xd3\x80-\xf4P\xe99\xbf\xd4\xad\x8c\xa1\xa9>\xc9\xd0uR\xb1\x07\x10E\x1aZ+8H\xef\xa4\x89\xfc\xaeVl\x8d\xeb\xea'	1	2017-03-09 19:16:20.595472	717795fa2f74a06676650aacd299b1d03a7b282c970959d35aa76c5744787812
2	b"\xc2\x92\x11adI\xc0\xd4'\xee\xef\xe9-x+\xb5\xb7\xb6~\xcb\xdeO\xe7\xd6\x98B\xe6e$t \xef\x0e\x16\xc5\x91c\x9b\x15\xa8\xe1\xa0\xa0Q\x15\xee\x8b?"	b"\xc2\x92\x11adI\xc0\xd4'\xee\xef\xe9-x+\xb5\xb7\xb6~\xcb\xdeO\xe7\xd6\x98B\xe6e$t \xef\x0e\x16\xc5\x91c\x9b\x15\xa8\xe1\xa0\xa0Q\x15\xee\x8b?"	1	2017-03-09 19:16:21.727746	8da5c2f12762cfb7c7eb554dd39c17f7742d7af5bcbabe19154a9754ab4b64d6
2	b"\xc2\x92\x11adI\xc0\xd4'\xee\xef\xe9-x+\xb5\xb7\xb6~\xcb\xdeO\xe7\xd6\x98B\xe6e$t \xef\x0e\x16\xc5\x91c\x9b\x15\xa8\xe1\xa0\xa0Q\x15\xee\x8b?"	b"\xc2\x92\x11adI\xc0\xd4'\xee\xef\xe9-x+\xb5\xb7\xb6~\xcb\xdeO\xe7\xd6\x98B\xe6e$t \xef\x0e\x16\xc5\x91c\x9b\x15\xa8\xe1\xa0\xa0Q\x15\xee\x8b?"	1	2017-03-09 19:16:21.920200	544d3f9c0cff360c209104ec06435239c40f7d76e01d408e27df78625d44dffd
2	b"\xc2\x92\x11adI\xc0\xd4'\xee\xef\xe9-x+\xb5\xb7\xb6~\xcb\xdeO\xe7\xd6\x98B\xe6e$t \xef\x0e\x16\xc5\x91c\x9b\x15\xa8\xe1\xa0\xa0Q\x15\xee\x8b?"	b"\xc2\x92\x11adI\xc0\xd4'\xee\xef\xe9-x+\xb5\xb7\xb6~\xcb\xdeO\xe7\xd6\x98B\xe6e$t \xef\x0e\x16\xc5\x91c\x9b\x15\xa8\xe1\xa0\xa0Q\x15\xee\x8b?"	1	2017-03-09 19:16:22.111906	11cc3a8595218a3523d9db72e05742b8e336ef77ef3cf7387de082ebf5b18288
2	b"\xc2\x92\x11adI\xc0\xd4'\xee\xef\xe9-x+\xb5\xb7\xb6~\xcb\xdeO\xe7\xd6\x98B\xe6e$t \xef\x0e\x16\xc5\x91c\x9b\x15\xa8\xe1\xa0\xa0Q\x15\xee\x8b?"	b"\xc2\x92\x11adI\xc0\xd4'\xee\xef\xe9-x+\xb5\xb7\xb6~\xcb\xdeO\xe7\xd6\x98B\xe6e$t \xef\x0e\x16\xc5\x91c\x9b\x15\xa8\xe1\xa0\xa0Q\x15\xee\x8b?"	1	2017-03-09 19:16:22.303182	b40ab6679054c7d49369bf6f8bcede792f7d1940bd39a4ccccb32c4a5188a17b
2	b"\xc2\x92\x11adI\xc0\xd4'\xee\xef\xe9-x+\xb5\xb7\xb6~\xcb\xdeO\xe7\xd6\x98B\xe6e$t \xef\x0e\x16\xc5\x91c\x9b\x15\xa8\xe1\xa0\xa0Q\x15\xee\x8b?"	b"\xc2\x92\x11adI\xc0\xd4'\xee\xef\xe9-x+\xb5\xb7\xb6~\xcb\xdeO\xe7\xd6\x98B\xe6e$t \xef\x0e\x16\xc5\x91c\x9b\x15\xa8\xe1\xa0\xa0Q\x15\xee\x8b?"	1	2017-03-09 19:16:22.492736	3e7db077f6e8f1bce837e8ff8928c09a2df1e1d747e83177df7058aca9261e95
2	b"\xc2\x92\x11adI\xc0\xd4'\xee\xef\xe9-x+\xb5\xb7\xb6~\xcb\xdeO\xe7\xd6\x98B\xe6e$t \xef\x0e\x16\xc5\x91c\x9b\x15\xa8\xe1\xa0\xa0Q\x15\xee\x8b?"	b"\xc2\x92\x11adI\xc0\xd4'\xee\xef\xe9-x+\xb5\xb7\xb6~\xcb\xdeO\xe7\xd6\x98B\xe6e$t \xef\x0e\x16\xc5\x91c\x9b\x15\xa8\xe1\xa0\xa0Q\x15\xee\x8b?"	1	2017-03-09 19:16:22.681651	4b8743b8725c65e956f435a44d9da58c8e4dce0e98570d4e85038c19114445b5
2	b"\xc2\x92\x11adI\xc0\xd4'\xee\xef\xe9-x+\xb5\xb7\xb6~\xcb\xdeO\xe7\xd6\x98B\xe6e$t \xef\x0e\x16\xc5\x91c\x9b\x15\xa8\xe1\xa0\xa0Q\x15\xee\x8b?"	b"\xc2\x92\x11adI\xc0\xd4'\xee\xef\xe9-x+\xb5\xb7\xb6~\xcb\xdeO\xe7\xd6\x98B\xe6e$t \xef\x0e\x16\xc5\x91c\x9b\x15\xa8\xe1\xa0\xa0Q\x15\xee\x8b?"	1	2017-03-09 19:16:22.871787	a764f2ce24df741df79eb20ca0c81a9b81f48a0494050146c0f6569ecf26749a
2	b"\xc2\x92\x11adI\xc0\xd4'\xee\xef\xe9-x+\xb5\xb7\xb6~\xcb\xdeO\xe7\xd6\x98B\xe6e$t \xef\x0e\x16\xc5\x91c\x9b\x15\xa8\xe1\xa0\xa0Q\x15\xee\x8b?"	b"\xc2\x92\x11adI\xc0\xd4'\xee\xef\xe9-x+\xb5\xb7\xb6~\xcb\xdeO\xe7\xd6\x98B\xe6e$t \xef\x0e\x16\xc5\x91c\x9b\x15\xa8\xe1\xa0\xa0Q\x15\xee\x8b?"	1	2017-03-09 19:16:23.059433	3279edcf926d9b326baed654e582ed695e36bcd6bba70ad914addc15c0e0da0e
2	b"\xc2\x92\x11adI\xc0\xd4'\xee\xef\xe9-x+\xb5\xb7\xb6~\xcb\xdeO\xe7\xd6\x98B\xe6e$t \xef\x0e\x16\xc5\x91c\x9b\x15\xa8\xe1\xa0\xa0Q\x15\xee\x8b?"	b"\xc2\x92\x11adI\xc0\xd4'\xee\xef\xe9-x+\xb5\xb7\xb6~\xcb\xdeO\xe7\xd6\x98B\xe6e$t \xef\x0e\x16\xc5\x91c\x9b\x15\xa8\xe1\xa0\xa0Q\x15\xee\x8b?"	1	2017-03-09 19:16:23.250200	67d9697a66a81d17a51fe194531fee405fcb606e5b9800e3bb3a0edd2abbbccc
2	b"\xc2\x92\x11adI\xc0\xd4'\xee\xef\xe9-x+\xb5\xb7\xb6~\xcb\xdeO\xe7\xd6\x98B\xe6e$t \xef\x0e\x16\xc5\x91c\x9b\x15\xa8\xe1\xa0\xa0Q\x15\xee\x8b?"	b"\xc2\x92\x11adI\xc0\xd4'\xee\xef\xe9-x+\xb5\xb7\xb6~\xcb\xdeO\xe7\xd6\x98B\xe6e$t \xef\x0e\x16\xc5\x91c\x9b\x15\xa8\xe1\xa0\xa0Q\x15\xee\x8b?"	1	2017-03-09 19:16:23.443617	92d07fe9c40539d2b6be7442d221384e9d98915d9888337def0579e8eb867568
2	b"\xc2\x92\x11adI\xc0\xd4'\xee\xef\xe9-x+\xb5\xb7\xb6~\xcb\xdeO\xe7\xd6\x98B\xe6e$t \xef\x0e\x16\xc5\x91c\x9b\x15\xa8\xe1\xa0\xa0Q\x15\xee\x8b?"	b"\xc2\x92\x11adI\xc0\xd4'\xee\xef\xe9-x+\xb5\xb7\xb6~\xcb\xdeO\xe7\xd6\x98B\xe6e$t \xef\x0e\x16\xc5\x91c\x9b\x15\xa8\xe1\xa0\xa0Q\x15\xee\x8b?"	1	2017-03-09 19:16:23.632152	8a34427d232ab293fac688046dc59a498dddca7cd57ca96a794f143a98d61c13
2	b"\xc2\x92\x11adI\xc0\xd4'\xee\xef\xe9-x+\xb5\xb7\xb6~\xcb\xdeO\xe7\xd6\x98B\xe6e$t \xef\x0e\x16\xc5\x91c\x9b\x15\xa8\xe1\xa0\xa0Q\x15\xee\x8b?"	b"\xc2\x92\x11adI\xc0\xd4'\xee\xef\xe9-x+\xb5\xb7\xb6~\xcb\xdeO\xe7\xd6\x98B\xe6e$t \xef\x0e\x16\xc5\x91c\x9b\x15\xa8\xe1\xa0\xa0Q\x15\xee\x8b?"	1	2017-03-09 19:16:23.821252	bf4a97bd2c1d520b102e94c5f4fa0e39931ca68fdcc7e89263eb0d5502161c31
3	b'rn\xd5\x1ck\xb9\xfe\xbd\xec\xb91\xa6\x13~6>\x1eZ\x1c\xae\x1a p\xcc\xcf6\x9cL<\xfe\xf0\xcd\x04\x0e\xc0O\x12\x9d\xe4\xef\xf2A\xd6-\xe3[\xa1\x19'	b'rn\xd5\x1ck\xb9\xfe\xbd\xec\xb91\xa6\x13~6>\x1eZ\x1c\xae\x1a p\xcc\xcf6\x9cL<\xfe\xf0\xcd\x04\x0e\xc0O\x12\x9d\xe4\xef\xf2A\xd6-\xe3[\xa1\x19'	1	2017-03-09 19:16:24.949706	98fd5cbf09799214fd4f0a7890b8f2b3f289cf0e2b29d8ad07b8789876672f6a
3	b'rn\xd5\x1ck\xb9\xfe\xbd\xec\xb91\xa6\x13~6>\x1eZ\x1c\xae\x1a p\xcc\xcf6\x9cL<\xfe\xf0\xcd\x04\x0e\xc0O\x12\x9d\xe4\xef\xf2A\xd6-\xe3[\xa1\x19'	b'rn\xd5\x1ck\xb9\xfe\xbd\xec\xb91\xa6\x13~6>\x1eZ\x1c\xae\x1a p\xcc\xcf6\x9cL<\xfe\xf0\xcd\x04\x0e\xc0O\x12\x9d\xe4\xef\xf2A\xd6-\xe3[\xa1\x19'	1	2017-03-09 19:16:25.137465	b6d36910eb98ab7acaf60ae4ffb7bad5305be78fd0534a5aa1f7f456b2e64a17
3	b'rn\xd5\x1ck\xb9\xfe\xbd\xec\xb91\xa6\x13~6>\x1eZ\x1c\xae\x1a p\xcc\xcf6\x9cL<\xfe\xf0\xcd\x04\x0e\xc0O\x12\x9d\xe4\xef\xf2A\xd6-\xe3[\xa1\x19'	b'rn\xd5\x1ck\xb9\xfe\xbd\xec\xb91\xa6\x13~6>\x1eZ\x1c\xae\x1a p\xcc\xcf6\x9cL<\xfe\xf0\xcd\x04\x0e\xc0O\x12\x9d\xe4\xef\xf2A\xd6-\xe3[\xa1\x19'	1	2017-03-09 19:16:25.328773	010c55734895e920e0d827d9abcdb32fb282b7e74b96774dc4ea1df9585f1c6b
3	b'rn\xd5\x1ck\xb9\xfe\xbd\xec\xb91\xa6\x13~6>\x1eZ\x1c\xae\x1a p\xcc\xcf6\x9cL<\xfe\xf0\xcd\x04\x0e\xc0O\x12\x9d\xe4\xef\xf2A\xd6-\xe3[\xa1\x19'	b'rn\xd5\x1ck\xb9\xfe\xbd\xec\xb91\xa6\x13~6>\x1eZ\x1c\xae\x1a p\xcc\xcf6\x9cL<\xfe\xf0\xcd\x04\x0e\xc0O\x12\x9d\xe4\xef\xf2A\xd6-\xe3[\xa1\x19'	1	2017-03-09 19:16:25.515391	0b76f56b13bc240b3ec25ba992b5f223a70c26fe59b320f6b9fdcd122574d8d7
3	b'rn\xd5\x1ck\xb9\xfe\xbd\xec\xb91\xa6\x13~6>\x1eZ\x1c\xae\x1a p\xcc\xcf6\x9cL<\xfe\xf0\xcd\x04\x0e\xc0O\x12\x9d\xe4\xef\xf2A\xd6-\xe3[\xa1\x19'	b'rn\xd5\x1ck\xb9\xfe\xbd\xec\xb91\xa6\x13~6>\x1eZ\x1c\xae\x1a p\xcc\xcf6\x9cL<\xfe\xf0\xcd\x04\x0e\xc0O\x12\x9d\xe4\xef\xf2A\xd6-\xe3[\xa1\x19'	1	2017-03-09 19:16:25.704081	a1dfa08326c8e239205ae1819dc5f86d211d7834f415750608b7816a05cfd521
3	b'rn\xd5\x1ck\xb9\xfe\xbd\xec\xb91\xa6\x13~6>\x1eZ\x1c\xae\x1a p\xcc\xcf6\x9cL<\xfe\xf0\xcd\x04\x0e\xc0O\x12\x9d\xe4\xef\xf2A\xd6-\xe3[\xa1\x19'	b'rn\xd5\x1ck\xb9\xfe\xbd\xec\xb91\xa6\x13~6>\x1eZ\x1c\xae\x1a p\xcc\xcf6\x9cL<\xfe\xf0\xcd\x04\x0e\xc0O\x12\x9d\xe4\xef\xf2A\xd6-\xe3[\xa1\x19'	1	2017-03-09 19:16:25.893895	8a0c5ebdadc0818d5f8ca94fc2887001abb3a8ac58b7a1c3a20757428469e821
3	b'rn\xd5\x1ck\xb9\xfe\xbd\xec\xb91\xa6\x13~6>\x1eZ\x1c\xae\x1a p\xcc\xcf6\x9cL<\xfe\xf0\xcd\x04\x0e\xc0O\x12\x9d\xe4\xef\xf2A\xd6-\xe3[\xa1\x19'	b'rn\xd5\x1ck\xb9\xfe\xbd\xec\xb91\xa6\x13~6>\x1eZ\x1c\xae\x1a p\xcc\xcf6\x9cL<\xfe\xf0\xcd\x04\x0e\xc0O\x12\x9d\xe4\xef\xf2A\xd6-\xe3[\xa1\x19'	1	2017-03-09 19:16:26.084089	ac7e951aab0f71a1c553da5674cbb917070f937d4f47dcc0ad72826c5b779cb5
3	b'rn\xd5\x1ck\xb9\xfe\xbd\xec\xb91\xa6\x13~6>\x1eZ\x1c\xae\x1a p\xcc\xcf6\x9cL<\xfe\xf0\xcd\x04\x0e\xc0O\x12\x9d\xe4\xef\xf2A\xd6-\xe3[\xa1\x19'	b'rn\xd5\x1ck\xb9\xfe\xbd\xec\xb91\xa6\x13~6>\x1eZ\x1c\xae\x1a p\xcc\xcf6\x9cL<\xfe\xf0\xcd\x04\x0e\xc0O\x12\x9d\xe4\xef\xf2A\xd6-\xe3[\xa1\x19'	1	2017-03-09 19:16:26.273407	2b08a540da4b46beb4613aae4c542e9b7e1bbcacbd525d10d59bc29ebca59168
3	b'rn\xd5\x1ck\xb9\xfe\xbd\xec\xb91\xa6\x13~6>\x1eZ\x1c\xae\x1a p\xcc\xcf6\x9cL<\xfe\xf0\xcd\x04\x0e\xc0O\x12\x9d\xe4\xef\xf2A\xd6-\xe3[\xa1\x19'	b'rn\xd5\x1ck\xb9\xfe\xbd\xec\xb91\xa6\x13~6>\x1eZ\x1c\xae\x1a p\xcc\xcf6\x9cL<\xfe\xf0\xcd\x04\x0e\xc0O\x12\x9d\xe4\xef\xf2A\xd6-\xe3[\xa1\x19'	1	2017-03-09 19:16:26.460160	e7cdd6b8bd78a76f88f9f39b161f261aeb6f6ece37ed74e3996ea3b4d81478c1
3	b'rn\xd5\x1ck\xb9\xfe\xbd\xec\xb91\xa6\x13~6>\x1eZ\x1c\xae\x1a p\xcc\xcf6\x9cL<\xfe\xf0\xcd\x04\x0e\xc0O\x12\x9d\xe4\xef\xf2A\xd6-\xe3[\xa1\x19'	b'rn\xd5\x1ck\xb9\xfe\xbd\xec\xb91\xa6\x13~6>\x1eZ\x1c\xae\x1a p\xcc\xcf6\x9cL<\xfe\xf0\xcd\x04\x0e\xc0O\x12\x9d\xe4\xef\xf2A\xd6-\xe3[\xa1\x19'	1	2017-03-09 19:16:26.648213	2487157b909aa5ea5743896f9c262d42c9df842aac57322db94faf28ae0fe009
3	b'rn\xd5\x1ck\xb9\xfe\xbd\xec\xb91\xa6\x13~6>\x1eZ\x1c\xae\x1a p\xcc\xcf6\x9cL<\xfe\xf0\xcd\x04\x0e\xc0O\x12\x9d\xe4\xef\xf2A\xd6-\xe3[\xa1\x19'	b'rn\xd5\x1ck\xb9\xfe\xbd\xec\xb91\xa6\x13~6>\x1eZ\x1c\xae\x1a p\xcc\xcf6\x9cL<\xfe\xf0\xcd\x04\x0e\xc0O\x12\x9d\xe4\xef\xf2A\xd6-\xe3[\xa1\x19'	1	2017-03-09 19:16:26.837486	824a6d3e2238f8739a251f3c77636598119f9eb2264c54bb602ba08c5e1a972d
3	b'rn\xd5\x1ck\xb9\xfe\xbd\xec\xb91\xa6\x13~6>\x1eZ\x1c\xae\x1a p\xcc\xcf6\x9cL<\xfe\xf0\xcd\x04\x0e\xc0O\x12\x9d\xe4\xef\xf2A\xd6-\xe3[\xa1\x19'	b'rn\xd5\x1ck\xb9\xfe\xbd\xec\xb91\xa6\x13~6>\x1eZ\x1c\xae\x1a p\xcc\xcf6\x9cL<\xfe\xf0\xcd\x04\x0e\xc0O\x12\x9d\xe4\xef\xf2A\xd6-\xe3[\xa1\x19'	1	2017-03-09 19:16:27.032791	e8e8c075b4ff9260645bcbf9fef1ca4025a39b6385cf1b85f5a838b431bed97f
4	b'\x97\x91T\xfd\xd1\xd2\x01_\xedQ\xed.\xfa5~\xe8\xab\xf9\xaa\xe8 \x93\x82g\xd3\x0f\xb8\xffpf.\xbd\xb07\xc1\x93}e\x17\xbfu\x18\xf6m\x88\xab\x935'	b'\x97\x91T\xfd\xd1\xd2\x01_\xedQ\xed.\xfa5~\xe8\xab\xf9\xaa\xe8 \x93\x82g\xd3\x0f\xb8\xffpf.\xbd\xb07\xc1\x93}e\x17\xbfu\x18\xf6m\x88\xab\x935'	1	2017-03-09 19:16:28.158085	e1c77b2d106c80693d6178de5e65ead4efd9696c9a8eedfa610029b6e6e160f7
4	b'\x97\x91T\xfd\xd1\xd2\x01_\xedQ\xed.\xfa5~\xe8\xab\xf9\xaa\xe8 \x93\x82g\xd3\x0f\xb8\xffpf.\xbd\xb07\xc1\x93}e\x17\xbfu\x18\xf6m\x88\xab\x935'	b'\x97\x91T\xfd\xd1\xd2\x01_\xedQ\xed.\xfa5~\xe8\xab\xf9\xaa\xe8 \x93\x82g\xd3\x0f\xb8\xffpf.\xbd\xb07\xc1\x93}e\x17\xbfu\x18\xf6m\x88\xab\x935'	1	2017-03-09 19:16:28.347897	290aea937ba7ac3fec33d73c23c8bf78318541f63b8609ccf6178538da5fad18
4	b'\x97\x91T\xfd\xd1\xd2\x01_\xedQ\xed.\xfa5~\xe8\xab\xf9\xaa\xe8 \x93\x82g\xd3\x0f\xb8\xffpf.\xbd\xb07\xc1\x93}e\x17\xbfu\x18\xf6m\x88\xab\x935'	b'\x97\x91T\xfd\xd1\xd2\x01_\xedQ\xed.\xfa5~\xe8\xab\xf9\xaa\xe8 \x93\x82g\xd3\x0f\xb8\xffpf.\xbd\xb07\xc1\x93}e\x17\xbfu\x18\xf6m\x88\xab\x935'	1	2017-03-09 19:16:28.535682	bb0c5a9fd6a46579937bdee8bf64471a861201bfd37e2674ba47d63eee4c1eea
4	b'\x97\x91T\xfd\xd1\xd2\x01_\xedQ\xed.\xfa5~\xe8\xab\xf9\xaa\xe8 \x93\x82g\xd3\x0f\xb8\xffpf.\xbd\xb07\xc1\x93}e\x17\xbfu\x18\xf6m\x88\xab\x935'	b'\x97\x91T\xfd\xd1\xd2\x01_\xedQ\xed.\xfa5~\xe8\xab\xf9\xaa\xe8 \x93\x82g\xd3\x0f\xb8\xffpf.\xbd\xb07\xc1\x93}e\x17\xbfu\x18\xf6m\x88\xab\x935'	1	2017-03-09 19:16:28.724346	dbf5b3d60f915eefea72672f6aec59136974734a2cfbb0496dd0e2e9cd6e8c96
4	b'\x97\x91T\xfd\xd1\xd2\x01_\xedQ\xed.\xfa5~\xe8\xab\xf9\xaa\xe8 \x93\x82g\xd3\x0f\xb8\xffpf.\xbd\xb07\xc1\x93}e\x17\xbfu\x18\xf6m\x88\xab\x935'	b'\x97\x91T\xfd\xd1\xd2\x01_\xedQ\xed.\xfa5~\xe8\xab\xf9\xaa\xe8 \x93\x82g\xd3\x0f\xb8\xffpf.\xbd\xb07\xc1\x93}e\x17\xbfu\x18\xf6m\x88\xab\x935'	1	2017-03-09 19:16:28.913905	2bf43b9984209bfec0b88ee0ade06f2a07585f72282a2ebd8c1112daf824ba99
4	b'\x97\x91T\xfd\xd1\xd2\x01_\xedQ\xed.\xfa5~\xe8\xab\xf9\xaa\xe8 \x93\x82g\xd3\x0f\xb8\xffpf.\xbd\xb07\xc1\x93}e\x17\xbfu\x18\xf6m\x88\xab\x935'	b'\x97\x91T\xfd\xd1\xd2\x01_\xedQ\xed.\xfa5~\xe8\xab\xf9\xaa\xe8 \x93\x82g\xd3\x0f\xb8\xffpf.\xbd\xb07\xc1\x93}e\x17\xbfu\x18\xf6m\x88\xab\x935'	1	2017-03-09 19:16:29.103965	885332b7f22a142e21b7459473003fddc17bfca5753ceb2f0f0d63cdf9de4288
4	b'\x97\x91T\xfd\xd1\xd2\x01_\xedQ\xed.\xfa5~\xe8\xab\xf9\xaa\xe8 \x93\x82g\xd3\x0f\xb8\xffpf.\xbd\xb07\xc1\x93}e\x17\xbfu\x18\xf6m\x88\xab\x935'	b'\x97\x91T\xfd\xd1\xd2\x01_\xedQ\xed.\xfa5~\xe8\xab\xf9\xaa\xe8 \x93\x82g\xd3\x0f\xb8\xffpf.\xbd\xb07\xc1\x93}e\x17\xbfu\x18\xf6m\x88\xab\x935'	1	2017-03-09 19:16:29.292373	7fedf7aaae65bdad482a461b9a7ba24d7dd2c4239e8d9d2f8ff5c1f4ce16438d
4	b'\x97\x91T\xfd\xd1\xd2\x01_\xedQ\xed.\xfa5~\xe8\xab\xf9\xaa\xe8 \x93\x82g\xd3\x0f\xb8\xffpf.\xbd\xb07\xc1\x93}e\x17\xbfu\x18\xf6m\x88\xab\x935'	b'\x97\x91T\xfd\xd1\xd2\x01_\xedQ\xed.\xfa5~\xe8\xab\xf9\xaa\xe8 \x93\x82g\xd3\x0f\xb8\xffpf.\xbd\xb07\xc1\x93}e\x17\xbfu\x18\xf6m\x88\xab\x935'	1	2017-03-09 19:16:29.480242	ffc014d049161103e31235530b2778c1388bd331460389d814aafb3fb05e26ec
4	b'\x97\x91T\xfd\xd1\xd2\x01_\xedQ\xed.\xfa5~\xe8\xab\xf9\xaa\xe8 \x93\x82g\xd3\x0f\xb8\xffpf.\xbd\xb07\xc1\x93}e\x17\xbfu\x18\xf6m\x88\xab\x935'	b'\x97\x91T\xfd\xd1\xd2\x01_\xedQ\xed.\xfa5~\xe8\xab\xf9\xaa\xe8 \x93\x82g\xd3\x0f\xb8\xffpf.\xbd\xb07\xc1\x93}e\x17\xbfu\x18\xf6m\x88\xab\x935'	1	2017-03-09 19:16:29.668490	9d06e5d38103e667c2c57a5cf5cc3d4ecd1e74f0423e3d100665a34af477d4db
4	b'\x97\x91T\xfd\xd1\xd2\x01_\xedQ\xed.\xfa5~\xe8\xab\xf9\xaa\xe8 \x93\x82g\xd3\x0f\xb8\xffpf.\xbd\xb07\xc1\x93}e\x17\xbfu\x18\xf6m\x88\xab\x935'	b'\x97\x91T\xfd\xd1\xd2\x01_\xedQ\xed.\xfa5~\xe8\xab\xf9\xaa\xe8 \x93\x82g\xd3\x0f\xb8\xffpf.\xbd\xb07\xc1\x93}e\x17\xbfu\x18\xf6m\x88\xab\x935'	1	2017-03-09 19:16:29.858190	408934a96ee62e5cd27af4b663eb3205796eac61b990777b72db420c8ebbd32a
4	b'\x97\x91T\xfd\xd1\xd2\x01_\xedQ\xed.\xfa5~\xe8\xab\xf9\xaa\xe8 \x93\x82g\xd3\x0f\xb8\xffpf.\xbd\xb07\xc1\x93}e\x17\xbfu\x18\xf6m\x88\xab\x935'	b'\x97\x91T\xfd\xd1\xd2\x01_\xedQ\xed.\xfa5~\xe8\xab\xf9\xaa\xe8 \x93\x82g\xd3\x0f\xb8\xffpf.\xbd\xb07\xc1\x93}e\x17\xbfu\x18\xf6m\x88\xab\x935'	1	2017-03-09 19:16:30.047358	71afd924779ce5cd5d60583f3bc33320c115932423ab2ee455fa549dcfc59568
4	b'\x97\x91T\xfd\xd1\xd2\x01_\xedQ\xed.\xfa5~\xe8\xab\xf9\xaa\xe8 \x93\x82g\xd3\x0f\xb8\xffpf.\xbd\xb07\xc1\x93}e\x17\xbfu\x18\xf6m\x88\xab\x935'	b'\x97\x91T\xfd\xd1\xd2\x01_\xedQ\xed.\xfa5~\xe8\xab\xf9\xaa\xe8 \x93\x82g\xd3\x0f\xb8\xffpf.\xbd\xb07\xc1\x93}e\x17\xbfu\x18\xf6m\x88\xab\x935'	1	2017-03-09 19:16:30.235624	452f2aeeb39040aa5f17dc8c087a44bcf2a91a450f3a75fbee2bf4b03ffc9f28
5	b'}^\x8e-4\x0eW\xfe\xdd\x01E\x04\xb9 N\x13:\xc7\xf1\xaf@B6&4S\xcc5\xa1.K\xfe\x86\x9f\x83z\x88\x93P\x9aD\xaf\xb4=\xdb\xf2\xab;'	b'}^\x8e-4\x0eW\xfe\xdd\x01E\x04\xb9 N\x13:\xc7\xf1\xaf@B6&4S\xcc5\xa1.K\xfe\x86\x9f\x83z\x88\x93P\x9aD\xaf\xb4=\xdb\xf2\xab;'	1	2017-03-09 19:16:31.364301	1c2a014b8cd4157f476bcd66c93beb72b7f89254df37f84f79fa0b385198e253
5	b'}^\x8e-4\x0eW\xfe\xdd\x01E\x04\xb9 N\x13:\xc7\xf1\xaf@B6&4S\xcc5\xa1.K\xfe\x86\x9f\x83z\x88\x93P\x9aD\xaf\xb4=\xdb\xf2\xab;'	b'}^\x8e-4\x0eW\xfe\xdd\x01E\x04\xb9 N\x13:\xc7\xf1\xaf@B6&4S\xcc5\xa1.K\xfe\x86\x9f\x83z\x88\x93P\x9aD\xaf\xb4=\xdb\xf2\xab;'	1	2017-03-09 19:16:31.551694	d2a68373c3a2b70a57beb0f3a624da859901202622fa4714e223cd19f7c41220
5	b'}^\x8e-4\x0eW\xfe\xdd\x01E\x04\xb9 N\x13:\xc7\xf1\xaf@B6&4S\xcc5\xa1.K\xfe\x86\x9f\x83z\x88\x93P\x9aD\xaf\xb4=\xdb\xf2\xab;'	b'}^\x8e-4\x0eW\xfe\xdd\x01E\x04\xb9 N\x13:\xc7\xf1\xaf@B6&4S\xcc5\xa1.K\xfe\x86\x9f\x83z\x88\x93P\x9aD\xaf\xb4=\xdb\xf2\xab;'	1	2017-03-09 19:16:31.737696	a19668e8a412480d84c99748e2821b5633a73724d58c2cdd5751f05fd65248e2
5	b'}^\x8e-4\x0eW\xfe\xdd\x01E\x04\xb9 N\x13:\xc7\xf1\xaf@B6&4S\xcc5\xa1.K\xfe\x86\x9f\x83z\x88\x93P\x9aD\xaf\xb4=\xdb\xf2\xab;'	b'}^\x8e-4\x0eW\xfe\xdd\x01E\x04\xb9 N\x13:\xc7\xf1\xaf@B6&4S\xcc5\xa1.K\xfe\x86\x9f\x83z\x88\x93P\x9aD\xaf\xb4=\xdb\xf2\xab;'	1	2017-03-09 19:16:31.928063	c21ec5648f9d0deb9d9e96c9b3b8d9d3e7f6ea9b859000f75835e9966929927d
5	b'}^\x8e-4\x0eW\xfe\xdd\x01E\x04\xb9 N\x13:\xc7\xf1\xaf@B6&4S\xcc5\xa1.K\xfe\x86\x9f\x83z\x88\x93P\x9aD\xaf\xb4=\xdb\xf2\xab;'	b'}^\x8e-4\x0eW\xfe\xdd\x01E\x04\xb9 N\x13:\xc7\xf1\xaf@B6&4S\xcc5\xa1.K\xfe\x86\x9f\x83z\x88\x93P\x9aD\xaf\xb4=\xdb\xf2\xab;'	1	2017-03-09 19:16:32.119022	901d5db6d2bd40560ceff448ef7aa6ca68f00ba7d79cfe61fa98ccb206dddec0
5	b'}^\x8e-4\x0eW\xfe\xdd\x01E\x04\xb9 N\x13:\xc7\xf1\xaf@B6&4S\xcc5\xa1.K\xfe\x86\x9f\x83z\x88\x93P\x9aD\xaf\xb4=\xdb\xf2\xab;'	b'}^\x8e-4\x0eW\xfe\xdd\x01E\x04\xb9 N\x13:\xc7\xf1\xaf@B6&4S\xcc5\xa1.K\xfe\x86\x9f\x83z\x88\x93P\x9aD\xaf\xb4=\xdb\xf2\xab;'	1	2017-03-09 19:16:32.308100	a4e1e8f9729302940d213be3c19f9b8bf88510efb7ac6287c5fe4ea72d51be78
5	b'}^\x8e-4\x0eW\xfe\xdd\x01E\x04\xb9 N\x13:\xc7\xf1\xaf@B6&4S\xcc5\xa1.K\xfe\x86\x9f\x83z\x88\x93P\x9aD\xaf\xb4=\xdb\xf2\xab;'	b'}^\x8e-4\x0eW\xfe\xdd\x01E\x04\xb9 N\x13:\xc7\xf1\xaf@B6&4S\xcc5\xa1.K\xfe\x86\x9f\x83z\x88\x93P\x9aD\xaf\xb4=\xdb\xf2\xab;'	1	2017-03-09 19:16:32.500666	f66b7bf2e7f763d92e01e6c68c55e4f9e0479924b6085b9d13c894a3032d00d3
5	b'}^\x8e-4\x0eW\xfe\xdd\x01E\x04\xb9 N\x13:\xc7\xf1\xaf@B6&4S\xcc5\xa1.K\xfe\x86\x9f\x83z\x88\x93P\x9aD\xaf\xb4=\xdb\xf2\xab;'	b'}^\x8e-4\x0eW\xfe\xdd\x01E\x04\xb9 N\x13:\xc7\xf1\xaf@B6&4S\xcc5\xa1.K\xfe\x86\x9f\x83z\x88\x93P\x9aD\xaf\xb4=\xdb\xf2\xab;'	1	2017-03-09 19:16:32.687653	f85cce4c15555e2ef8e80ec405103b4be35df6b86430db19e2c92b52f20743bd
5	b'}^\x8e-4\x0eW\xfe\xdd\x01E\x04\xb9 N\x13:\xc7\xf1\xaf@B6&4S\xcc5\xa1.K\xfe\x86\x9f\x83z\x88\x93P\x9aD\xaf\xb4=\xdb\xf2\xab;'	b'}^\x8e-4\x0eW\xfe\xdd\x01E\x04\xb9 N\x13:\xc7\xf1\xaf@B6&4S\xcc5\xa1.K\xfe\x86\x9f\x83z\x88\x93P\x9aD\xaf\xb4=\xdb\xf2\xab;'	1	2017-03-09 19:16:32.909197	12007f07fca5e79c600461f5d013e4143e770a83d58c237bd5ffbe4c158be297
5	b'}^\x8e-4\x0eW\xfe\xdd\x01E\x04\xb9 N\x13:\xc7\xf1\xaf@B6&4S\xcc5\xa1.K\xfe\x86\x9f\x83z\x88\x93P\x9aD\xaf\xb4=\xdb\xf2\xab;'	b'}^\x8e-4\x0eW\xfe\xdd\x01E\x04\xb9 N\x13:\xc7\xf1\xaf@B6&4S\xcc5\xa1.K\xfe\x86\x9f\x83z\x88\x93P\x9aD\xaf\xb4=\xdb\xf2\xab;'	1	2017-03-09 19:16:33.100874	05f336ad681e97887ea5a76dc2225cbc1a383638e085d33cdb6ec44993aac11d
5	b'}^\x8e-4\x0eW\xfe\xdd\x01E\x04\xb9 N\x13:\xc7\xf1\xaf@B6&4S\xcc5\xa1.K\xfe\x86\x9f\x83z\x88\x93P\x9aD\xaf\xb4=\xdb\xf2\xab;'	b'}^\x8e-4\x0eW\xfe\xdd\x01E\x04\xb9 N\x13:\xc7\xf1\xaf@B6&4S\xcc5\xa1.K\xfe\x86\x9f\x83z\x88\x93P\x9aD\xaf\xb4=\xdb\xf2\xab;'	1	2017-03-09 19:16:33.285908	4b188eae83f5f66700826296f291e3763125a6b4ceab9aa08fac68081a7afa9f
5	b'}^\x8e-4\x0eW\xfe\xdd\x01E\x04\xb9 N\x13:\xc7\xf1\xaf@B6&4S\xcc5\xa1.K\xfe\x86\x9f\x83z\x88\x93P\x9aD\xaf\xb4=\xdb\xf2\xab;'	b'}^\x8e-4\x0eW\xfe\xdd\x01E\x04\xb9 N\x13:\xc7\xf1\xaf@B6&4S\xcc5\xa1.K\xfe\x86\x9f\x83z\x88\x93P\x9aD\xaf\xb4=\xdb\xf2\xab;'	1	2017-03-09 19:16:33.475395	4c13492a0c99ca3e4832fcd8ed45295841678275e1cab7f77a78520759ea7771
6	b'\xdc\x89<\xf5\xa5\xc7\x83\x8d\xc9\xbf\xcdn\x98\x02\xbe=\xf8\x94\x19\xfd\xb6\x8e\x99\xf0\xf5?=\xc2|\x90\x9e\xed\xd4\x8b\xcb\xd0\xbecQ\x07g\x97\x9a\xf5\xa3\x9d\xf2\xaa'	b'\xdc\x89<\xf5\xa5\xc7\x83\x8d\xc9\xbf\xcdn\x98\x02\xbe=\xf8\x94\x19\xfd\xb6\x8e\x99\xf0\xf5?=\xc2|\x90\x9e\xed\xd4\x8b\xcb\xd0\xbecQ\x07g\x97\x9a\xf5\xa3\x9d\xf2\xaa'	1	2017-03-09 19:16:34.598348	5a5dd583a59e0901a10cac855da950b7627863114e1889990f0f747bb95a1e1d
6	b'\xdc\x89<\xf5\xa5\xc7\x83\x8d\xc9\xbf\xcdn\x98\x02\xbe=\xf8\x94\x19\xfd\xb6\x8e\x99\xf0\xf5?=\xc2|\x90\x9e\xed\xd4\x8b\xcb\xd0\xbecQ\x07g\x97\x9a\xf5\xa3\x9d\xf2\xaa'	b'\xdc\x89<\xf5\xa5\xc7\x83\x8d\xc9\xbf\xcdn\x98\x02\xbe=\xf8\x94\x19\xfd\xb6\x8e\x99\xf0\xf5?=\xc2|\x90\x9e\xed\xd4\x8b\xcb\xd0\xbecQ\x07g\x97\x9a\xf5\xa3\x9d\xf2\xaa'	1	2017-03-09 19:16:34.785057	2fe69332fa59df4034feafb6965c3479d103ae4e61da9dcd8d59ceefa9827f76
6	b'\xdc\x89<\xf5\xa5\xc7\x83\x8d\xc9\xbf\xcdn\x98\x02\xbe=\xf8\x94\x19\xfd\xb6\x8e\x99\xf0\xf5?=\xc2|\x90\x9e\xed\xd4\x8b\xcb\xd0\xbecQ\x07g\x97\x9a\xf5\xa3\x9d\xf2\xaa'	b'\xdc\x89<\xf5\xa5\xc7\x83\x8d\xc9\xbf\xcdn\x98\x02\xbe=\xf8\x94\x19\xfd\xb6\x8e\x99\xf0\xf5?=\xc2|\x90\x9e\xed\xd4\x8b\xcb\xd0\xbecQ\x07g\x97\x9a\xf5\xa3\x9d\xf2\xaa'	1	2017-03-09 19:16:34.973467	823de0ea3549df11fe0a823c3cff3aae4c61a1b671afdeffac817cb731dc94ae
6	b'\xdc\x89<\xf5\xa5\xc7\x83\x8d\xc9\xbf\xcdn\x98\x02\xbe=\xf8\x94\x19\xfd\xb6\x8e\x99\xf0\xf5?=\xc2|\x90\x9e\xed\xd4\x8b\xcb\xd0\xbecQ\x07g\x97\x9a\xf5\xa3\x9d\xf2\xaa'	b'\xdc\x89<\xf5\xa5\xc7\x83\x8d\xc9\xbf\xcdn\x98\x02\xbe=\xf8\x94\x19\xfd\xb6\x8e\x99\xf0\xf5?=\xc2|\x90\x9e\xed\xd4\x8b\xcb\xd0\xbecQ\x07g\x97\x9a\xf5\xa3\x9d\xf2\xaa'	1	2017-03-09 19:16:35.161942	2239804df6c325228162d6013187fc7fb05fb37142f9cf6462be69a9dc7c05b9
6	b'\xdc\x89<\xf5\xa5\xc7\x83\x8d\xc9\xbf\xcdn\x98\x02\xbe=\xf8\x94\x19\xfd\xb6\x8e\x99\xf0\xf5?=\xc2|\x90\x9e\xed\xd4\x8b\xcb\xd0\xbecQ\x07g\x97\x9a\xf5\xa3\x9d\xf2\xaa'	b'\xdc\x89<\xf5\xa5\xc7\x83\x8d\xc9\xbf\xcdn\x98\x02\xbe=\xf8\x94\x19\xfd\xb6\x8e\x99\xf0\xf5?=\xc2|\x90\x9e\xed\xd4\x8b\xcb\xd0\xbecQ\x07g\x97\x9a\xf5\xa3\x9d\xf2\xaa'	1	2017-03-09 19:16:35.351364	9c7881a9f6faa83679a3e84901d4956787647c17b1a091cfe81ea5cb9bc3836a
6	b'\xdc\x89<\xf5\xa5\xc7\x83\x8d\xc9\xbf\xcdn\x98\x02\xbe=\xf8\x94\x19\xfd\xb6\x8e\x99\xf0\xf5?=\xc2|\x90\x9e\xed\xd4\x8b\xcb\xd0\xbecQ\x07g\x97\x9a\xf5\xa3\x9d\xf2\xaa'	b'\xdc\x89<\xf5\xa5\xc7\x83\x8d\xc9\xbf\xcdn\x98\x02\xbe=\xf8\x94\x19\xfd\xb6\x8e\x99\xf0\xf5?=\xc2|\x90\x9e\xed\xd4\x8b\xcb\xd0\xbecQ\x07g\x97\x9a\xf5\xa3\x9d\xf2\xaa'	1	2017-03-09 19:16:35.536190	32f69e84d25d1c20a44caf6d93fb74b0acc73f56901879f9d04b75ab5f76ff04
6	b'\xdc\x89<\xf5\xa5\xc7\x83\x8d\xc9\xbf\xcdn\x98\x02\xbe=\xf8\x94\x19\xfd\xb6\x8e\x99\xf0\xf5?=\xc2|\x90\x9e\xed\xd4\x8b\xcb\xd0\xbecQ\x07g\x97\x9a\xf5\xa3\x9d\xf2\xaa'	b'\xdc\x89<\xf5\xa5\xc7\x83\x8d\xc9\xbf\xcdn\x98\x02\xbe=\xf8\x94\x19\xfd\xb6\x8e\x99\xf0\xf5?=\xc2|\x90\x9e\xed\xd4\x8b\xcb\xd0\xbecQ\x07g\x97\x9a\xf5\xa3\x9d\xf2\xaa'	1	2017-03-09 19:16:35.724738	b0709dfdd97822456060067dec189255e370737de7217e5ae9bfb6f60f361efa
6	b'\xdc\x89<\xf5\xa5\xc7\x83\x8d\xc9\xbf\xcdn\x98\x02\xbe=\xf8\x94\x19\xfd\xb6\x8e\x99\xf0\xf5?=\xc2|\x90\x9e\xed\xd4\x8b\xcb\xd0\xbecQ\x07g\x97\x9a\xf5\xa3\x9d\xf2\xaa'	b'\xdc\x89<\xf5\xa5\xc7\x83\x8d\xc9\xbf\xcdn\x98\x02\xbe=\xf8\x94\x19\xfd\xb6\x8e\x99\xf0\xf5?=\xc2|\x90\x9e\xed\xd4\x8b\xcb\xd0\xbecQ\x07g\x97\x9a\xf5\xa3\x9d\xf2\xaa'	1	2017-03-09 19:16:35.915294	5f7bb53b00fcac833a5e0cb5c8c054e4aff170f7de6b8d4648a252e2adadd185
6	b'\xdc\x89<\xf5\xa5\xc7\x83\x8d\xc9\xbf\xcdn\x98\x02\xbe=\xf8\x94\x19\xfd\xb6\x8e\x99\xf0\xf5?=\xc2|\x90\x9e\xed\xd4\x8b\xcb\xd0\xbecQ\x07g\x97\x9a\xf5\xa3\x9d\xf2\xaa'	b'\xdc\x89<\xf5\xa5\xc7\x83\x8d\xc9\xbf\xcdn\x98\x02\xbe=\xf8\x94\x19\xfd\xb6\x8e\x99\xf0\xf5?=\xc2|\x90\x9e\xed\xd4\x8b\xcb\xd0\xbecQ\x07g\x97\x9a\xf5\xa3\x9d\xf2\xaa'	1	2017-03-09 19:16:36.103743	2ab4e55c7fdf332c78e4f36966a981f452ffb6758026085a4ad9df565a1df82d
6	b'\xdc\x89<\xf5\xa5\xc7\x83\x8d\xc9\xbf\xcdn\x98\x02\xbe=\xf8\x94\x19\xfd\xb6\x8e\x99\xf0\xf5?=\xc2|\x90\x9e\xed\xd4\x8b\xcb\xd0\xbecQ\x07g\x97\x9a\xf5\xa3\x9d\xf2\xaa'	b'\xdc\x89<\xf5\xa5\xc7\x83\x8d\xc9\xbf\xcdn\x98\x02\xbe=\xf8\x94\x19\xfd\xb6\x8e\x99\xf0\xf5?=\xc2|\x90\x9e\xed\xd4\x8b\xcb\xd0\xbecQ\x07g\x97\x9a\xf5\xa3\x9d\xf2\xaa'	1	2017-03-09 19:16:36.292501	78d0a7b89dce61aadfae8bd78f66632f3e743989f3412b137d200f8dbb4b50ab
6	b'\xdc\x89<\xf5\xa5\xc7\x83\x8d\xc9\xbf\xcdn\x98\x02\xbe=\xf8\x94\x19\xfd\xb6\x8e\x99\xf0\xf5?=\xc2|\x90\x9e\xed\xd4\x8b\xcb\xd0\xbecQ\x07g\x97\x9a\xf5\xa3\x9d\xf2\xaa'	b'\xdc\x89<\xf5\xa5\xc7\x83\x8d\xc9\xbf\xcdn\x98\x02\xbe=\xf8\x94\x19\xfd\xb6\x8e\x99\xf0\xf5?=\xc2|\x90\x9e\xed\xd4\x8b\xcb\xd0\xbecQ\x07g\x97\x9a\xf5\xa3\x9d\xf2\xaa'	1	2017-03-09 19:16:36.482827	c0f7b70ab27168a34ec120988d463540f189b784dc438ee36050f1ea27a87fdf
6	b'\xdc\x89<\xf5\xa5\xc7\x83\x8d\xc9\xbf\xcdn\x98\x02\xbe=\xf8\x94\x19\xfd\xb6\x8e\x99\xf0\xf5?=\xc2|\x90\x9e\xed\xd4\x8b\xcb\xd0\xbecQ\x07g\x97\x9a\xf5\xa3\x9d\xf2\xaa'	b'\xdc\x89<\xf5\xa5\xc7\x83\x8d\xc9\xbf\xcdn\x98\x02\xbe=\xf8\x94\x19\xfd\xb6\x8e\x99\xf0\xf5?=\xc2|\x90\x9e\xed\xd4\x8b\xcb\xd0\xbecQ\x07g\x97\x9a\xf5\xa3\x9d\xf2\xaa'	1	2017-03-09 19:16:36.671429	4ecdb4def4e2983b1870142bf00f5356bab01d25a63296de3cdd7e0b8dacb364
7	b'\x00\xac\x15\x8a\xc2\x04\xafe[f\x05\x1f\x8fJ\xcf\x98Q\xb3\x02\xbfu\nI\x91\x06\xf1\x11\xac_\x08\x04yW=\x06\x19\x93X\x10\\\xb8\x89$\x8c$Q\xdcy'	b'\x00\xac\x15\x8a\xc2\x04\xafe[f\x05\x1f\x8fJ\xcf\x98Q\xb3\x02\xbfu\nI\x91\x06\xf1\x11\xac_\x08\x04yW=\x06\x19\x93X\x10\\\xb8\x89$\x8c$Q\xdcy'	1	2017-03-09 19:16:37.795643	c6acfda58251458e48ed009d0c37ff517981f195fcbc467eeeeadb9fbb1e6e82
7	b'\x00\xac\x15\x8a\xc2\x04\xafe[f\x05\x1f\x8fJ\xcf\x98Q\xb3\x02\xbfu\nI\x91\x06\xf1\x11\xac_\x08\x04yW=\x06\x19\x93X\x10\\\xb8\x89$\x8c$Q\xdcy'	b'\x00\xac\x15\x8a\xc2\x04\xafe[f\x05\x1f\x8fJ\xcf\x98Q\xb3\x02\xbfu\nI\x91\x06\xf1\x11\xac_\x08\x04yW=\x06\x19\x93X\x10\\\xb8\x89$\x8c$Q\xdcy'	1	2017-03-09 19:16:37.987276	f8072ac0272709e27c0bb5ac04926148d845a0232bcfdbfe1a155a0cbe227b1e
7	b'\x00\xac\x15\x8a\xc2\x04\xafe[f\x05\x1f\x8fJ\xcf\x98Q\xb3\x02\xbfu\nI\x91\x06\xf1\x11\xac_\x08\x04yW=\x06\x19\x93X\x10\\\xb8\x89$\x8c$Q\xdcy'	b'\x00\xac\x15\x8a\xc2\x04\xafe[f\x05\x1f\x8fJ\xcf\x98Q\xb3\x02\xbfu\nI\x91\x06\xf1\x11\xac_\x08\x04yW=\x06\x19\x93X\x10\\\xb8\x89$\x8c$Q\xdcy'	1	2017-03-09 19:16:38.177532	9646f275f10ae73f70fa297fef85e62b5accd3a38284eb0a64b8203e12dd1373
7	b'\x00\xac\x15\x8a\xc2\x04\xafe[f\x05\x1f\x8fJ\xcf\x98Q\xb3\x02\xbfu\nI\x91\x06\xf1\x11\xac_\x08\x04yW=\x06\x19\x93X\x10\\\xb8\x89$\x8c$Q\xdcy'	b'\x00\xac\x15\x8a\xc2\x04\xafe[f\x05\x1f\x8fJ\xcf\x98Q\xb3\x02\xbfu\nI\x91\x06\xf1\x11\xac_\x08\x04yW=\x06\x19\x93X\x10\\\xb8\x89$\x8c$Q\xdcy'	1	2017-03-09 19:16:38.368084	67ff8ff154ac8696352f2bbfefc14d4bc25786295bb8303c7bd6a6259a09300d
7	b'\x00\xac\x15\x8a\xc2\x04\xafe[f\x05\x1f\x8fJ\xcf\x98Q\xb3\x02\xbfu\nI\x91\x06\xf1\x11\xac_\x08\x04yW=\x06\x19\x93X\x10\\\xb8\x89$\x8c$Q\xdcy'	b'\x00\xac\x15\x8a\xc2\x04\xafe[f\x05\x1f\x8fJ\xcf\x98Q\xb3\x02\xbfu\nI\x91\x06\xf1\x11\xac_\x08\x04yW=\x06\x19\x93X\x10\\\xb8\x89$\x8c$Q\xdcy'	1	2017-03-09 19:16:38.558567	7be41cb37baa6cd725830ea77adfc19c525096c3b56e95690a0cfac451756219
7	b'\x00\xac\x15\x8a\xc2\x04\xafe[f\x05\x1f\x8fJ\xcf\x98Q\xb3\x02\xbfu\nI\x91\x06\xf1\x11\xac_\x08\x04yW=\x06\x19\x93X\x10\\\xb8\x89$\x8c$Q\xdcy'	b'\x00\xac\x15\x8a\xc2\x04\xafe[f\x05\x1f\x8fJ\xcf\x98Q\xb3\x02\xbfu\nI\x91\x06\xf1\x11\xac_\x08\x04yW=\x06\x19\x93X\x10\\\xb8\x89$\x8c$Q\xdcy'	1	2017-03-09 19:16:38.774563	f887a1298b1981f1fc8d8401a5813ab0e6898a84d265a6dba27524f94eeb550f
7	b'\x00\xac\x15\x8a\xc2\x04\xafe[f\x05\x1f\x8fJ\xcf\x98Q\xb3\x02\xbfu\nI\x91\x06\xf1\x11\xac_\x08\x04yW=\x06\x19\x93X\x10\\\xb8\x89$\x8c$Q\xdcy'	b'\x00\xac\x15\x8a\xc2\x04\xafe[f\x05\x1f\x8fJ\xcf\x98Q\xb3\x02\xbfu\nI\x91\x06\xf1\x11\xac_\x08\x04yW=\x06\x19\x93X\x10\\\xb8\x89$\x8c$Q\xdcy'	1	2017-03-09 19:16:38.962409	2faf4c3d26b7b54b6613fd9ad6615d772fa362059775d09cac2a52e33cd4608e
7	b'\x00\xac\x15\x8a\xc2\x04\xafe[f\x05\x1f\x8fJ\xcf\x98Q\xb3\x02\xbfu\nI\x91\x06\xf1\x11\xac_\x08\x04yW=\x06\x19\x93X\x10\\\xb8\x89$\x8c$Q\xdcy'	b'\x00\xac\x15\x8a\xc2\x04\xafe[f\x05\x1f\x8fJ\xcf\x98Q\xb3\x02\xbfu\nI\x91\x06\xf1\x11\xac_\x08\x04yW=\x06\x19\x93X\x10\\\xb8\x89$\x8c$Q\xdcy'	1	2017-03-09 19:16:39.153940	bd967167b9a70cc58353beeb439070461fdb8560c896ff070e6900aa37187d74
7	b'\x00\xac\x15\x8a\xc2\x04\xafe[f\x05\x1f\x8fJ\xcf\x98Q\xb3\x02\xbfu\nI\x91\x06\xf1\x11\xac_\x08\x04yW=\x06\x19\x93X\x10\\\xb8\x89$\x8c$Q\xdcy'	b'\x00\xac\x15\x8a\xc2\x04\xafe[f\x05\x1f\x8fJ\xcf\x98Q\xb3\x02\xbfu\nI\x91\x06\xf1\x11\xac_\x08\x04yW=\x06\x19\x93X\x10\\\xb8\x89$\x8c$Q\xdcy'	1	2017-03-09 19:16:39.342871	2a3c1f80a5cbb28f6ab707be1506caef17eba3e15fe8ee024ff8ef66fc859e4c
7	b'\x00\xac\x15\x8a\xc2\x04\xafe[f\x05\x1f\x8fJ\xcf\x98Q\xb3\x02\xbfu\nI\x91\x06\xf1\x11\xac_\x08\x04yW=\x06\x19\x93X\x10\\\xb8\x89$\x8c$Q\xdcy'	b'\x00\xac\x15\x8a\xc2\x04\xafe[f\x05\x1f\x8fJ\xcf\x98Q\xb3\x02\xbfu\nI\x91\x06\xf1\x11\xac_\x08\x04yW=\x06\x19\x93X\x10\\\xb8\x89$\x8c$Q\xdcy'	1	2017-03-09 19:16:39.533633	aa5c025dfc7afb57c4d25100f0545f4a2dd6b149b0e05b70eef42b887e9b7489
7	b'\x00\xac\x15\x8a\xc2\x04\xafe[f\x05\x1f\x8fJ\xcf\x98Q\xb3\x02\xbfu\nI\x91\x06\xf1\x11\xac_\x08\x04yW=\x06\x19\x93X\x10\\\xb8\x89$\x8c$Q\xdcy'	b'\x00\xac\x15\x8a\xc2\x04\xafe[f\x05\x1f\x8fJ\xcf\x98Q\xb3\x02\xbfu\nI\x91\x06\xf1\x11\xac_\x08\x04yW=\x06\x19\x93X\x10\\\xb8\x89$\x8c$Q\xdcy'	1	2017-03-09 19:16:39.723501	f7e11a1e5d02cf8550bb41963e65c1efb4108dddc175a4395f69d651ba20fa2a
7	b'\x00\xac\x15\x8a\xc2\x04\xafe[f\x05\x1f\x8fJ\xcf\x98Q\xb3\x02\xbfu\nI\x91\x06\xf1\x11\xac_\x08\x04yW=\x06\x19\x93X\x10\\\xb8\x89$\x8c$Q\xdcy'	b'\x00\xac\x15\x8a\xc2\x04\xafe[f\x05\x1f\x8fJ\xcf\x98Q\xb3\x02\xbfu\nI\x91\x06\xf1\x11\xac_\x08\x04yW=\x06\x19\x93X\x10\\\xb8\x89$\x8c$Q\xdcy'	1	2017-03-09 19:16:39.910752	1bae5f9367b0207058064d587c58cde1cfcf8a9776d8ded8b25199663c5f0257
8	b'\xfbQ\xdb\xb2E\xb0\xea\x8e\xa7B\xea\xc1}\xa8\xa3+]p\x80\x1b\xee\xcd\xa9\xcd\xcc\xa6-\xd1\xc9m!b\x00%\x07\xe0J\xa7\x07c\x15\x0e\x93\x84\xc2z:\x01'	b'\xfbQ\xdb\xb2E\xb0\xea\x8e\xa7B\xea\xc1}\xa8\xa3+]p\x80\x1b\xee\xcd\xa9\xcd\xcc\xa6-\xd1\xc9m!b\x00%\x07\xe0J\xa7\x07c\x15\x0e\x93\x84\xc2z:\x01'	1	2017-03-09 19:16:41.042074	7780e013b7e89f9e827f13f20118adb7f5d3ac4286f4e6c9d896a5af6aa13f64
8	b'\xfbQ\xdb\xb2E\xb0\xea\x8e\xa7B\xea\xc1}\xa8\xa3+]p\x80\x1b\xee\xcd\xa9\xcd\xcc\xa6-\xd1\xc9m!b\x00%\x07\xe0J\xa7\x07c\x15\x0e\x93\x84\xc2z:\x01'	b'\xfbQ\xdb\xb2E\xb0\xea\x8e\xa7B\xea\xc1}\xa8\xa3+]p\x80\x1b\xee\xcd\xa9\xcd\xcc\xa6-\xd1\xc9m!b\x00%\x07\xe0J\xa7\x07c\x15\x0e\x93\x84\xc2z:\x01'	1	2017-03-09 19:16:41.233175	bc1f7bea11c366334c2338b1c060829da9713225c18e1af024ae16054fd7396f
8	b'\xfbQ\xdb\xb2E\xb0\xea\x8e\xa7B\xea\xc1}\xa8\xa3+]p\x80\x1b\xee\xcd\xa9\xcd\xcc\xa6-\xd1\xc9m!b\x00%\x07\xe0J\xa7\x07c\x15\x0e\x93\x84\xc2z:\x01'	b'\xfbQ\xdb\xb2E\xb0\xea\x8e\xa7B\xea\xc1}\xa8\xa3+]p\x80\x1b\xee\xcd\xa9\xcd\xcc\xa6-\xd1\xc9m!b\x00%\x07\xe0J\xa7\x07c\x15\x0e\x93\x84\xc2z:\x01'	1	2017-03-09 19:16:41.423005	868f3898f75b462a62fa6afd13b09835ca757198e1a136cda7867290755b90ef
8	b'\xfbQ\xdb\xb2E\xb0\xea\x8e\xa7B\xea\xc1}\xa8\xa3+]p\x80\x1b\xee\xcd\xa9\xcd\xcc\xa6-\xd1\xc9m!b\x00%\x07\xe0J\xa7\x07c\x15\x0e\x93\x84\xc2z:\x01'	b'\xfbQ\xdb\xb2E\xb0\xea\x8e\xa7B\xea\xc1}\xa8\xa3+]p\x80\x1b\xee\xcd\xa9\xcd\xcc\xa6-\xd1\xc9m!b\x00%\x07\xe0J\xa7\x07c\x15\x0e\x93\x84\xc2z:\x01'	1	2017-03-09 19:16:41.613273	a7523876db3e34c1912458b415d074645d5cdfea9fee4005107bca0b943eb9bd
8	b'\xfbQ\xdb\xb2E\xb0\xea\x8e\xa7B\xea\xc1}\xa8\xa3+]p\x80\x1b\xee\xcd\xa9\xcd\xcc\xa6-\xd1\xc9m!b\x00%\x07\xe0J\xa7\x07c\x15\x0e\x93\x84\xc2z:\x01'	b'\xfbQ\xdb\xb2E\xb0\xea\x8e\xa7B\xea\xc1}\xa8\xa3+]p\x80\x1b\xee\xcd\xa9\xcd\xcc\xa6-\xd1\xc9m!b\x00%\x07\xe0J\xa7\x07c\x15\x0e\x93\x84\xc2z:\x01'	1	2017-03-09 19:16:41.804014	af2aef7071ca92fd7c9b80f9eb2263ffacf7d6dae5d0612e1ba4bbc04e04fc47
8	b'\xfbQ\xdb\xb2E\xb0\xea\x8e\xa7B\xea\xc1}\xa8\xa3+]p\x80\x1b\xee\xcd\xa9\xcd\xcc\xa6-\xd1\xc9m!b\x00%\x07\xe0J\xa7\x07c\x15\x0e\x93\x84\xc2z:\x01'	b'\xfbQ\xdb\xb2E\xb0\xea\x8e\xa7B\xea\xc1}\xa8\xa3+]p\x80\x1b\xee\xcd\xa9\xcd\xcc\xa6-\xd1\xc9m!b\x00%\x07\xe0J\xa7\x07c\x15\x0e\x93\x84\xc2z:\x01'	1	2017-03-09 19:16:41.992942	1ac6d62156549c474e950ab50f862197cfcb362f12541897f1a2fbe4ec310068
8	b'\xfbQ\xdb\xb2E\xb0\xea\x8e\xa7B\xea\xc1}\xa8\xa3+]p\x80\x1b\xee\xcd\xa9\xcd\xcc\xa6-\xd1\xc9m!b\x00%\x07\xe0J\xa7\x07c\x15\x0e\x93\x84\xc2z:\x01'	b'\xfbQ\xdb\xb2E\xb0\xea\x8e\xa7B\xea\xc1}\xa8\xa3+]p\x80\x1b\xee\xcd\xa9\xcd\xcc\xa6-\xd1\xc9m!b\x00%\x07\xe0J\xa7\x07c\x15\x0e\x93\x84\xc2z:\x01'	1	2017-03-09 19:16:42.182867	3c2ffe67e845548bcfd646816a2b2fdcebdc3a095f6702da295b6d4e1dac1393
8	b'\xfbQ\xdb\xb2E\xb0\xea\x8e\xa7B\xea\xc1}\xa8\xa3+]p\x80\x1b\xee\xcd\xa9\xcd\xcc\xa6-\xd1\xc9m!b\x00%\x07\xe0J\xa7\x07c\x15\x0e\x93\x84\xc2z:\x01'	b'\xfbQ\xdb\xb2E\xb0\xea\x8e\xa7B\xea\xc1}\xa8\xa3+]p\x80\x1b\xee\xcd\xa9\xcd\xcc\xa6-\xd1\xc9m!b\x00%\x07\xe0J\xa7\x07c\x15\x0e\x93\x84\xc2z:\x01'	1	2017-03-09 19:16:42.373004	8d1dea6a0cd4feb3c0efa181b9f1b8e688fd2d92a4dba5e2ca62096a112a5e11
8	b'\xfbQ\xdb\xb2E\xb0\xea\x8e\xa7B\xea\xc1}\xa8\xa3+]p\x80\x1b\xee\xcd\xa9\xcd\xcc\xa6-\xd1\xc9m!b\x00%\x07\xe0J\xa7\x07c\x15\x0e\x93\x84\xc2z:\x01'	b'\xfbQ\xdb\xb2E\xb0\xea\x8e\xa7B\xea\xc1}\xa8\xa3+]p\x80\x1b\xee\xcd\xa9\xcd\xcc\xa6-\xd1\xc9m!b\x00%\x07\xe0J\xa7\x07c\x15\x0e\x93\x84\xc2z:\x01'	1	2017-03-09 19:16:42.562641	be02ac56010bdb244f687a8c392aca956c425313fb9f064594b2fdf79679f971
8	b'\xfbQ\xdb\xb2E\xb0\xea\x8e\xa7B\xea\xc1}\xa8\xa3+]p\x80\x1b\xee\xcd\xa9\xcd\xcc\xa6-\xd1\xc9m!b\x00%\x07\xe0J\xa7\x07c\x15\x0e\x93\x84\xc2z:\x01'	b'\xfbQ\xdb\xb2E\xb0\xea\x8e\xa7B\xea\xc1}\xa8\xa3+]p\x80\x1b\xee\xcd\xa9\xcd\xcc\xa6-\xd1\xc9m!b\x00%\x07\xe0J\xa7\x07c\x15\x0e\x93\x84\xc2z:\x01'	1	2017-03-09 19:16:42.750703	d62aadf3e3d90c0dd37d0a42a45ce9ff1a19a2992d64a9893b330df6da02bc63
8	b'\xfbQ\xdb\xb2E\xb0\xea\x8e\xa7B\xea\xc1}\xa8\xa3+]p\x80\x1b\xee\xcd\xa9\xcd\xcc\xa6-\xd1\xc9m!b\x00%\x07\xe0J\xa7\x07c\x15\x0e\x93\x84\xc2z:\x01'	b'\xfbQ\xdb\xb2E\xb0\xea\x8e\xa7B\xea\xc1}\xa8\xa3+]p\x80\x1b\xee\xcd\xa9\xcd\xcc\xa6-\xd1\xc9m!b\x00%\x07\xe0J\xa7\x07c\x15\x0e\x93\x84\xc2z:\x01'	1	2017-03-09 19:16:42.940489	ca025d18ec6ceefc2d384c44b41158b17c34fcadae4337c299a47ca2e81a8ab2
8	b'\xfbQ\xdb\xb2E\xb0\xea\x8e\xa7B\xea\xc1}\xa8\xa3+]p\x80\x1b\xee\xcd\xa9\xcd\xcc\xa6-\xd1\xc9m!b\x00%\x07\xe0J\xa7\x07c\x15\x0e\x93\x84\xc2z:\x01'	b'\xfbQ\xdb\xb2E\xb0\xea\x8e\xa7B\xea\xc1}\xa8\xa3+]p\x80\x1b\xee\xcd\xa9\xcd\xcc\xa6-\xd1\xc9m!b\x00%\x07\xe0J\xa7\x07c\x15\x0e\x93\x84\xc2z:\x01'	1	2017-03-09 19:16:43.138175	218f10d8e0fdaec1418c3c4b5b4e043b3461941646c51e115a1420bc60406a73
9	b'R\x7f\xc4$&\xbe\x10u\xcfI\xd7&\x1f\xc8d\x1c\x0c\x82\x8a\xa66\x0c\x867U\xd6\xd3\xbav\xae\nV8SL\xe6\x02\xaaWT\xb7\x08\xe8B\xbei\xb0C'	b'R\x7f\xc4$&\xbe\x10u\xcfI\xd7&\x1f\xc8d\x1c\x0c\x82\x8a\xa66\x0c\x867U\xd6\xd3\xbav\xae\nV8SL\xe6\x02\xaaWT\xb7\x08\xe8B\xbei\xb0C'	1	2017-03-09 19:16:44.259371	eec4bed19875dbe85d5e1651c038545e3e1f491a161bc5acc98780b6b877b4b3
9	b'R\x7f\xc4$&\xbe\x10u\xcfI\xd7&\x1f\xc8d\x1c\x0c\x82\x8a\xa66\x0c\x867U\xd6\xd3\xbav\xae\nV8SL\xe6\x02\xaaWT\xb7\x08\xe8B\xbei\xb0C'	b'R\x7f\xc4$&\xbe\x10u\xcfI\xd7&\x1f\xc8d\x1c\x0c\x82\x8a\xa66\x0c\x867U\xd6\xd3\xbav\xae\nV8SL\xe6\x02\xaaWT\xb7\x08\xe8B\xbei\xb0C'	1	2017-03-09 19:16:44.448713	875ec5e3d485ec708d8a66951a9366fc6190c384a92b9cad8cba1bddd3a24327
9	b'R\x7f\xc4$&\xbe\x10u\xcfI\xd7&\x1f\xc8d\x1c\x0c\x82\x8a\xa66\x0c\x867U\xd6\xd3\xbav\xae\nV8SL\xe6\x02\xaaWT\xb7\x08\xe8B\xbei\xb0C'	b'R\x7f\xc4$&\xbe\x10u\xcfI\xd7&\x1f\xc8d\x1c\x0c\x82\x8a\xa66\x0c\x867U\xd6\xd3\xbav\xae\nV8SL\xe6\x02\xaaWT\xb7\x08\xe8B\xbei\xb0C'	1	2017-03-09 19:16:44.638510	db757b73dcd501203e0148fb2ac8cb90c76be44c207d981bcc2dcf9c3c78d5d0
9	b'R\x7f\xc4$&\xbe\x10u\xcfI\xd7&\x1f\xc8d\x1c\x0c\x82\x8a\xa66\x0c\x867U\xd6\xd3\xbav\xae\nV8SL\xe6\x02\xaaWT\xb7\x08\xe8B\xbei\xb0C'	b'R\x7f\xc4$&\xbe\x10u\xcfI\xd7&\x1f\xc8d\x1c\x0c\x82\x8a\xa66\x0c\x867U\xd6\xd3\xbav\xae\nV8SL\xe6\x02\xaaWT\xb7\x08\xe8B\xbei\xb0C'	1	2017-03-09 19:16:44.828787	90ee7f52a4de94f36a61af8a991b6fd69283c876f4d0aedb6873018c4eec50db
9	b'R\x7f\xc4$&\xbe\x10u\xcfI\xd7&\x1f\xc8d\x1c\x0c\x82\x8a\xa66\x0c\x867U\xd6\xd3\xbav\xae\nV8SL\xe6\x02\xaaWT\xb7\x08\xe8B\xbei\xb0C'	b'R\x7f\xc4$&\xbe\x10u\xcfI\xd7&\x1f\xc8d\x1c\x0c\x82\x8a\xa66\x0c\x867U\xd6\xd3\xbav\xae\nV8SL\xe6\x02\xaaWT\xb7\x08\xe8B\xbei\xb0C'	1	2017-03-09 19:16:45.018684	8a21bc0d16513bf48dfc11ba2fb248d8326d60d7bf2edbab1d6d05866c1eb18a
9	b'R\x7f\xc4$&\xbe\x10u\xcfI\xd7&\x1f\xc8d\x1c\x0c\x82\x8a\xa66\x0c\x867U\xd6\xd3\xbav\xae\nV8SL\xe6\x02\xaaWT\xb7\x08\xe8B\xbei\xb0C'	b'R\x7f\xc4$&\xbe\x10u\xcfI\xd7&\x1f\xc8d\x1c\x0c\x82\x8a\xa66\x0c\x867U\xd6\xd3\xbav\xae\nV8SL\xe6\x02\xaaWT\xb7\x08\xe8B\xbei\xb0C'	1	2017-03-09 19:16:45.209605	0158e5183a2335d3ab87a9e44db0d65f42712f2a53c770692ab11e4d0efa464c
9	b'R\x7f\xc4$&\xbe\x10u\xcfI\xd7&\x1f\xc8d\x1c\x0c\x82\x8a\xa66\x0c\x867U\xd6\xd3\xbav\xae\nV8SL\xe6\x02\xaaWT\xb7\x08\xe8B\xbei\xb0C'	b'R\x7f\xc4$&\xbe\x10u\xcfI\xd7&\x1f\xc8d\x1c\x0c\x82\x8a\xa66\x0c\x867U\xd6\xd3\xbav\xae\nV8SL\xe6\x02\xaaWT\xb7\x08\xe8B\xbei\xb0C'	1	2017-03-09 19:16:45.399726	d211334f1aed999b776d7a38d250682599c46410740c465b2cfce52535944d91
9	b'R\x7f\xc4$&\xbe\x10u\xcfI\xd7&\x1f\xc8d\x1c\x0c\x82\x8a\xa66\x0c\x867U\xd6\xd3\xbav\xae\nV8SL\xe6\x02\xaaWT\xb7\x08\xe8B\xbei\xb0C'	b'R\x7f\xc4$&\xbe\x10u\xcfI\xd7&\x1f\xc8d\x1c\x0c\x82\x8a\xa66\x0c\x867U\xd6\xd3\xbav\xae\nV8SL\xe6\x02\xaaWT\xb7\x08\xe8B\xbei\xb0C'	1	2017-03-09 19:16:45.590977	ac7bb74de6884ffce919c15fef4193749d4588026c643973946713ac46da540d
9	b'R\x7f\xc4$&\xbe\x10u\xcfI\xd7&\x1f\xc8d\x1c\x0c\x82\x8a\xa66\x0c\x867U\xd6\xd3\xbav\xae\nV8SL\xe6\x02\xaaWT\xb7\x08\xe8B\xbei\xb0C'	b'R\x7f\xc4$&\xbe\x10u\xcfI\xd7&\x1f\xc8d\x1c\x0c\x82\x8a\xa66\x0c\x867U\xd6\xd3\xbav\xae\nV8SL\xe6\x02\xaaWT\xb7\x08\xe8B\xbei\xb0C'	1	2017-03-09 19:16:45.779426	c81770e48345cf545ff568e528c3e38006d658c0efd8e7b1d0721e78e8f570b7
9	b'R\x7f\xc4$&\xbe\x10u\xcfI\xd7&\x1f\xc8d\x1c\x0c\x82\x8a\xa66\x0c\x867U\xd6\xd3\xbav\xae\nV8SL\xe6\x02\xaaWT\xb7\x08\xe8B\xbei\xb0C'	b'R\x7f\xc4$&\xbe\x10u\xcfI\xd7&\x1f\xc8d\x1c\x0c\x82\x8a\xa66\x0c\x867U\xd6\xd3\xbav\xae\nV8SL\xe6\x02\xaaWT\xb7\x08\xe8B\xbei\xb0C'	1	2017-03-09 19:16:45.968662	79f0a467d1be7b57d7233c32edfb8be89f762a15421ddae3cc1cf9f7e1cf0b03
9	b'R\x7f\xc4$&\xbe\x10u\xcfI\xd7&\x1f\xc8d\x1c\x0c\x82\x8a\xa66\x0c\x867U\xd6\xd3\xbav\xae\nV8SL\xe6\x02\xaaWT\xb7\x08\xe8B\xbei\xb0C'	b'R\x7f\xc4$&\xbe\x10u\xcfI\xd7&\x1f\xc8d\x1c\x0c\x82\x8a\xa66\x0c\x867U\xd6\xd3\xbav\xae\nV8SL\xe6\x02\xaaWT\xb7\x08\xe8B\xbei\xb0C'	1	2017-03-09 19:16:46.159951	30c3cfd79bdbd5af40c1c98fdb35f86d4063932bb980ab41105faeb500bb7a59
9	b'R\x7f\xc4$&\xbe\x10u\xcfI\xd7&\x1f\xc8d\x1c\x0c\x82\x8a\xa66\x0c\x867U\xd6\xd3\xbav\xae\nV8SL\xe6\x02\xaaWT\xb7\x08\xe8B\xbei\xb0C'	b'R\x7f\xc4$&\xbe\x10u\xcfI\xd7&\x1f\xc8d\x1c\x0c\x82\x8a\xa66\x0c\x867U\xd6\xd3\xbav\xae\nV8SL\xe6\x02\xaaWT\xb7\x08\xe8B\xbei\xb0C'	1	2017-03-09 19:16:46.347836	71e38ac3f3c54387b9b166572576a8268acf9f6383552281080f75ba67f9bf91
